{
	"name": "binary_native_messaging_test",
	"description": "Native component for testing binary native messaging support.",
	"path": "./build/BNMTest/Release/bnmtest.exe",
	"type": "stdio",
	"output_type": "binary",
	"allowed_origins":
	[
		"chrome-extension://hnjbfpfifjanoaelnaicoglhojgcoaac/"
	]
}